0x01 escape_down ? x
0x02 one_down 1 !
0x03 two_down 2 @
0x04 three_down 3 #
0x05 four_down 4 $
0x06 five_down 5 %
0x07 six_down 6 ^
0x08 seven_down 7 &
0x09 eight_down 8 *
0x0A nine_down 9 (
0x0B zero_down 0 )
0x0C minus_down - _
0x0D equals_down = +
0x0E backspace_down ? x
0x0F tab_down ? x
0x10 Q_down Q Q
0x11 W_down W W
0x12 E_down E E
0x13 R_down R R
0x14 T_down T T
0x15 Y_down Y Y
0x16 U_down U U
0x17 I_down I I
0x18 O_down O O
0x19 P_down P P
0x1A open_bracket_down [ {
0x1B close_bracket_down ] }
0x1C enter_down ? x
0x1D left_control_down ? x 
0x1E A_down A A
0x1F S_down S S
0x20 D_down D D
0x21 F_down F F
0x22 G_down G G
0x23 H_down H H
0x24 J_down J J
0x25 K_down K K
0x26 L_down L L
0x27 semicolon_down ; :
0x28 single_quote_down ' "
0x29 backtick_down ` ~ 
0x2A left_shift_down ?
0x2B backslash_down \ |
0x2C Z_down Z Z
0x2D X_down X X
0x2E C_down C C
0x2F V_down V V
0x30 B_down B B
0x31 N_down N N
0x32 M_down M M
0x33 comma_down , <
0x34 period_down . >
0x35 forward_slash_down / ?
0x36 right_shift_down ? 
0x37 keypad_star_down *
0x38 left_alt_down ?
0x39 space_down ?
0x3A caps_lock_down ?
0x3B F1_down ?
0x3C F2_down ?
0x3D F3_down ?
0x3E F4_down ?
0x3F F5_down ?
0x40 F6_down ?
0x41 F7_down ?
0x42 F8_down ?
0x43 F9_down ?
0x44 F10_down ?
0x45 num_lock_down ?
0x46 scroll_lock_down ?
0x47 keypad_7_down 7
0x48 keypad_8_down 8
0x49 keypad_9_down 9
0x4A keypad_minus_down -
0x4B keypad_4_down 4
0x4C keypad_5_down 5
0x4D keypad_6_down 6
0x4E keypad_plus_down +
0x4F keypad_1_down 1
0x50 keypad_2_down 2
0x51 keypad_3_down 3
0x52 keypad_0_down 0
0x53 keypad_period_down .
0x57 F11_down ?
0x58 F12_down ?
0x81 escape_up ?
0x82 one_up
0x83 two_up 
0x84 three_up
0x85 four_up
0x86 five_up
0x87 six_up
0x88 seven_up
0x89 eight_up
0x8A nine_up
0x8B zero_up
0x8C minus_up
0x8D equals_up
0x8E backspace_up
0x8F tab_up
0x90 Q_up
0x91 W_up
0x92 E_up
0x93 R_up
0x94 T_up
0x95 Y_up
0x96 U_up
0x97 I_up
0x98 O_up
0x99 P_up
x9A open_bracket_up
0x9B close_bracket_up
0x9C enter_up
0x9D left_control_up
0x9E A_up
0x9F S_up
0xA0 D_up
0xA1 F_up
0xA2 G_up
0xA3 H_up
0xA4 J_up
0xA5 K_up
0xA6 L_up
0xA7 semicolon_up
0xA8 single_quote_up
0xA9 backtick_up
0xAA left_shift_up
0xAB backslash_up
0xAC Z_up
0xAD X_up
0xAE C_up
0xAF V_up
0xB0 B_up
0xB1 N_up
0xB2 M_up
0xB3 comma_up
0xB4 period_up
0xB5 forward_slash_released
0xB6 right shift_up
0xB7 keypad_star_up
0xB8 left_alt_up
0xB9 space_up
0xBA caps_lock_up
0xBB F1_up
0xBC F2_up
0xBD F3_up
0xBE F4_up
0xBF F5_up
0xC0 F6_up
0xC1 F7_up
0xC2 F8_up
0xC3 F9_up
0xC4 F10_up
0xC5 num_lock_up
0xC6 scroll_lock_up
0xC7 keypad_7_up
0xC8 keypad_8_up
0xC9 keypad_9_up
0xCA keypad_minus_up
0xCB keypad_4_up
0xCC keypad_5_up
0xCD keypad_6_up
0xCE keypad_plus_up
0xCF keypad_1_up
0xD0 keypad_2_up
0xD1 keypad_3_up
0xD2 keypad_0_up
0xD3 keypad_period_up
0xD7 F11_up
0xD8 F12_up
